<?xml version="1.0" encoding="UTF-8"?>
<svg width="26px" height="26px" viewBox="0 0 26 26" version="1.1" xmlns="http://www.w3.org/2000/svg" xmlns:xlink="http://www.w3.org/1999/xlink">
    <!-- Generator: Sketch 61.2 (89653) - https://sketch.com -->
    <title>telemarketer</title>
    <desc>Created with Sketch.</desc>
    <g id="Final" stroke="none" stroke-width="1" fill="none" fill-rule="evenodd">
        <g id="Home" transform="translate(-1107.000000, -3870.000000)" fill="#000000" fill-rule="nonzero">
            <g id="Group-13" transform="translate(0.000000, 3448.000000)">
                <g id="telemarketer" transform="translate(1107.000000, 422.000000)">
                    <path d="M24.984375,18.6329498 C25.5453491,18.6329498 26,18.1782989 26,17.6173248 L26,12.9984131 C26,5.83111572 20.1682892,-1.44328993e-15 13,-1.44328993e-15 C5.83171083,-1.44328993e-15 0,5.83111572 0,12.9984131 C0,13.5593872 0.454650879,14.0140381 1.015625,14.0140381 L3.14962771,14.0140381 C3.37060547,16.1714478 4.28724669,18.1259308 5.6708374,19.6489716 L5.40740967,19.6489716 C2.4257965,19.6489716 0,22.0424347 0,24.984375 C0,25.5453491 0.454650879,26 1.015625,26 L24.984375,26 C25.5453491,26 26,25.5453491 26,24.984375 C26,22.0424347 23.5742035,19.6489716 20.5925903,19.6489716 L20.3293609,19.6489716 C20.620163,19.3288116 20.88974,18.989212 21.1372986,18.6329498 L24.984375,18.6329498 Z M3.14923096,11.9827881 L2.07786561,11.9827881 C2.59222412,6.4099426 7.29444884,2.03125 13,2.03125 C19.0481262,2.03125 23.96875,6.9510803 23.96875,12.9984131 L23.96875,16.6016998 L22.2229462,16.6016998 C22.6712494,15.458725 22.9023438,14.2403717 22.9023438,12.9970245 C22.9023438,7.53684999 18.4601746,3.09468077 13,3.09468077 C7.88616943,3.09468077 3.65922548,6.99372862 3.14923096,11.9827881 Z M19.9959106,16.6016998 L13,16.6016998 C12.4390259,16.6016998 11.984375,17.0563507 11.984375,17.6173248 C11.984375,18.1782989 12.4390259,18.6329498 13,18.6329498 L18.4885406,18.6329498 C17.0696411,20.015152 15.1326141,20.8681183 13,20.8681183 C8.65979004,20.8681183 5.12890625,17.3372345 5.12890625,12.9970245 C5.12890625,12.2047577 5.24713135,11.4396668 5.46592714,10.7178192 C7.32856749,12.8982391 10.0755157,14.1963349 13,14.1963349 L20.7798462,14.1963349 C20.6487274,15.0508881 20.3793487,15.8604126 19.9959106,16.6016998 Z M13,12.1650849 C10.3567963,12.1650849 7.89569092,10.8308868 6.44306945,8.64788818 C7.8546295,6.52677919 10.2665405,5.12593077 13,5.12593077 C17.0591278,5.12593077 20.4100952,8.21466064 20.8270569,12.1650849 L13,12.1650849 Z" id="Shape"></path>
                </g>
            </g>
        </g>
    </g>
</svg>